# Anjuta Version 1.1.97 
Compatibility Level: 1 

<PROJECT_DESCRIPTION_START>
Various plugins for GSwitchIt XKB toolkit<PROJECT_DESCRIPTION_END>
<CONFIG_PROGS_START>
<CONFIG_PROGS_END>
<CONFIG_LIBS_START>
<CONFIG_LIBS_END>
<CONFIG_HEADERS_START>
<CONFIG_HEADERS_END>
<CONFIG_CHARACTERISTICS_START>
<CONFIG_CHARACTERISTICS_END>
<CONFIG_LIB_FUNCS_START>
<CONFIG_LIB_FUNCS_END>
<CONFIG_ADDITIONAL_START>
<CONFIG_ADDITIONAL_END>
<CONFIG_FILES_START>
<CONFIG_FILES_END>
<MAKEFILE_AM_START>
<MAKEFILE_AM_END>

props.file.type=project

anjuta.version=1.1.97
anjuta.compatibility.level=1

project.name=gswitchit_plugins
project.type=GNOME
project.target.type=EXECUTABLE
project.version=0.1
project.author=Sergey V. Oudaltsov
project.source.target=gswitchit_plugins
project.has.gettext=1
project.gui.command=
project.programming.language=C
project.excluded.modules=intl

project.config.extra.modules.before=
project.config.extra.modules.after=
project.config.blocked=1
project.config.disable.overwriting=1 1 1 1 1 1 1 1 1 

project.menu.entry=gswitchit_plugins Version 0.1
project.menu.group=Application
project.menu.comment=gswitchit_plugins Version 0.1
project.menu.icon=
project.menu.need.terminal=0

project.configure.options=
anjuta.program.arguments=
preferences.build.option.jobs=0
preferences.build.option.silent=1
preferences.build.option.autosave=0
preferences.anjuta.make.options=-k
preferences.make=make
preferences.build.option.keep.going=1
preferences.build.option.warn.undef=1
preferences.autoformat.custom.style=--space-after-parentheses --blank-lines-after-procedures --brace-indent0 --case-brace-indentation0 --case-indentation2 --dont-break-procedure-type --no-space-after-function-call-names --no-space-after-for --no-space-after-if --no-space-after-while --no-tabs --cuddle-else --cuddle-do-while --swallow-optional-blank-lines
preferences.autoformat.style=Custom style
preferences.indent.opening=0
preferences.autoformat.disable=0
preferences.indent.automatic=1
preferences.use.tabs=1
preferences.indent.size=2
preferences.tabsize=2
preferences.indent.closing=0

module.include.name=.
module.include.type=
module.include.files=

module.source.name=.
module.source.type=
module.source.files=\
	highlight/highlight.c\
	sound/sound.c\
	test/test.c\
	grp4app/grp4app.c

module.pixmap.name=.
module.pixmap.type=
module.pixmap.files=

module.data.name=.
module.data.type=
module.data.files=

module.help.name=.
module.help.type=
module.help.files=

module.doc.name=.
module.doc.type=
module.doc.files=\
	ChangeLog\
	AUTHORS\
	CREDITS\
	NEWS\
	README\
	po/ChangeLog\
	INSTALL\
	COPYING

module.po.files=\
	am.po\
	az.po\
	be.po\
	bg.po\
	cs.po\
	de.po\
	el.po\
	es.po\
	fa.po\
	fr.po\
	he.po\
	it.po\
	ja.po\
	lv.po\
	mk.po\
	ml.po\
	mn.po\
	nl.po\
	no.po\
	pl.po\
	pt.po\
	pt_BR.po\
	ru.po\
	sq.po\
	sr.po\
	sr@Latn.po\
	sv.po\
	uk.po\
	vi.po\
	zh_CN.po

compiler.options.supports=
compiler.options.include.paths=\
	.\
	..
compiler.options.library.paths=
compiler.options.libraries=
compiler.options.libraries.selected=
compiler.options.defines=\
	HAVE_CONFIG_H
compiler.options.defines.selected=
compiler.options.warning.buttons=0 0 1 1 0 1 0 0 0 0 0 0 0 1 0 0 
compiler.options.optimize.buttons=0 0 1 0 
compiler.options.other.buttons=1 0 
compiler.options.other.c.flags=
compiler.options.other.l.flags=
compiler.options.other.l.libs=

project.src.paths=
